Visualizing COVID-19
…
# Read datasets/confirmed_cases_worldwide.csv into confirmed_cases_worldwide
confirmed_cases_worldwide <- read_csv("datasets/confirmed_cases_worldwide.csv")

## 
## -- Column specification --------------------------------------------------------
## cols(
##   date = col_date(format = ""),
##   cum_cases = col_double()
## )

# See the result
confirmed_cases_worldwide

## # A tibble: 56 x 2
##    date       cum_cases
##    <date>         <dbl>
##  1 2020-01-22       555
##  2 2020-01-23       653
##  3 2020-01-24       941
##  4 2020-01-25      1434
##  5 2020-01-26      2118
##  6 2020-01-27      2927
##  7 2020-01-28      5578
##  8 2020-01-29      6166
##  9 2020-01-30      8234
## 10 2020-01-31      9927
## # ... with 46 more rows
…
## 
## -- Column specification --------------------------------------------------------
## cols(
##   is_china = col_character(),
##   date = col_date(format = ""),
##   cases = col_double(),
##   cum_cases = col_double()
## )

# See the result
confirmed_cases_china_vs_world

## # A tibble: 112 x 4
##    is_china date       cases cum_cases
##    <chr>    <date>     <dbl>     <dbl>
##  1 China    2020-01-22   548       548
##  2 China    2020-01-23    95       643
##  3 China    2020-01-24   277       920
##  4 China    2020-01-25   486      1406
##  5 China    2020-01-26   669      2075
##  6 China    2020-01-27   802      2877
##  7 China    2020-01-28  2632      5509
##  8 China    2020-01-29   578      6087
##  9 China    2020-01-30  2054      8141
## 10 China    2020-01-31  1661      9802
## # ... with 102 more rows
…
